<svg width="6" height="10" viewBox="0 0 6 10" fill="none" xmlns="http://www.w3.org/2000/svg">
<path d="M5 1L1 5L5 9" stroke="#2CB2DB" stroke-width="2" stroke-linecap="round" stroke-linejoin="round"/>
</svg>
